2021-04-01,"Sachsen","INCIDENCE",1.38024986416733,239.839819974019,207.389480277988,277.375478503148
2021-04-01,"Sachsen","CASES",1.38024986416733,223509.681498021,211644.824784686,235374.538211355
2021-04-01,"Sachsen","DAILY_CASES",1.38024986416733,1581.03695572438,1339.70963362034,1865.3383973462
2021-04-01,"Sachsen","DAILY_DEAD",1.38024986416733,45.5610453711561,42.3306135734165,49.1560770721353
2021-04-01,"Sachsen","DAILY_RECOVERED",1.38024986416733,900.076530713181,826.83542022857,982.073166343587
2021-04-01,"Sachsen","DEAD",1.38024986416733,8783.30125124433,8612.23971555549,8954.36278693316
2021-04-01,"Sachsen","HOSPITAL",1.38024986416733,1527.54769050955,1353.495712051,1701.5996689681
2021-04-01,"Sachsen","ICU",1.38024986416733,291.043173629299,231.358056597416,350.728290661182
2021-04-01,"Sachsen","ICUkumulativ",1.38024986416733,5489.46122691393,4390.09249922512,6588.82995460274
2021-04-01,"Sachsen","KHkumulativ",1.38024986416733,20637.7775774319,18379.0456361639,22896.5095186999
2021-04-01,"Sachsen","RECOVERED",1.38024986416733,197829.806311244,135269.528609896,260390.084012593
2021-04-01,"Sachsen","VENTILATED",1.38024986416733,141.057687100914,111.369667374708,170.74570682712
2021-04-02,"Sachsen","INCIDENCE",1.38227438844103,250.20900467337,214.81979126075,291.426795288871
2021-04-02,"Sachsen","CASES",1.38227438844103,225160.131355835,213210.633754934,237109.628956737
2021-04-02,"Sachsen","DAILY_CASES",1.38227438844103,1650.44985781459,1388.63683425286,1961.01220507419
2021-04-02,"Sachsen","DAILY_DEAD",1.38227438844103,47.1098295428073,43.4903025067088,51.1611303075933
2021-04-02,"Sachsen","DAILY_RECOVERED",1.38227438844103,933.881701716949,852.239871882135,1025.82528317402
2021-04-02,"Sachsen","DEAD",1.38227438844103,8830.41108078713,8658.46067861222,9002.36148296205
2021-04-02,"Sachsen","HOSPITAL",1.38227438844103,1580.88611219798,1401.01559887095,1760.75662552501
2021-04-02,"Sachsen","ICU",1.38227438844103,299.693654557676,238.278441340118,361.108867775235
2021-04-02,"Sachsen","ICUkumulativ",1.38227438844103,5529.13193693465,4421.82906724169,6636.4348066276
2021-04-02,"Sachsen","KHkumulativ",1.38227438844103,20779.2265243602,18505.0643246827,23053.3887240378
2021-04-02,"Sachsen","RECOVERED",1.38227438844103,198763.688012961,135908.090987355,261619.285038568
2021-04-02,"Sachsen","VENTILATED",1.38227438844103,145.688426401203,115.074258814939,176.302593987467
2021-04-03,"Sachsen","INCIDENCE",1.38418041738899,261.087108419621,222.569605025294,306.257331932069
2021-04-03,"Sachsen","CASES",1.38418041738899,226883.331966458,214845.462562893,238921.201370023
2021-04-03,"Sachsen","DAILY_CASES",1.38418041738899,1723.20061062291,1439.61184440283,2061.90150734558
2021-04-03,"Sachsen","DAILY_DEAD",1.38418041738899,48.7547518896936,44.7161590526557,53.3014942737809
2021-04-03,"Sachsen","DAILY_RECOVERED",1.38418041738899,969.568533953599,878.899120443064,1072.28934384653
2021-04-03,"Sachsen","DEAD",1.38418041738899,8879.16583267683,8706.29552768306,9052.03613767059
2021-04-03,"Sachsen","HOSPITAL",1.38418041738899,1637.3361595789,1451.30767309451,1823.36464606329
2021-04-03,"Sachsen","ICU",1.38418041738899,308.916979249223,245.657101093355,372.176857405091
2021-04-03,"Sachsen","ICUkumulativ",1.38418041738899,5570.51312252645,4454.93401571514,6686.09222933777
2021-04-03,"Sachsen","KHkumulativ",1.38418041738899,20926.7743025963,18636.5165405594,23217.0320646332
2021-04-03,"Sachsen","RECOVERED",1.38418041738899,199733.256546915,136571.055029816,262895.458064014
2021-04-03,"Sachsen","VENTILATED",1.38418041738899,150.605915786454,119.00825032314,182.203581249768
2021-04-04,"Sachsen","INCIDENCE",1.38597354092809,272.495259900568,230.6495051948,321.905302993074
2021-04-04,"Sachsen","CASES",1.38597354092809,228682.755724145,216552.605526202,240812.905922088
2021-04-04,"Sachsen","DAILY_CASES",1.38597354092809,1799.42375768721,1492.70086414105,2168.25377622497
2021-04-04,"Sachsen","DAILY_DEAD",1.38597354092809,50.4989433755436,46.0097514306599,55.5827657790087
2021-04-04,"Sachsen","DAILY_RECOVERED",1.38597354092809,1007.2102161214,906.853151621035,1121.59108918349
2021-04-04,"Sachsen","DEAD",1.38597354092809,8929.66477605237,8755.84165890062,9103.48789320412
2021-04-04,"Sachsen","HOSPITAL",1.38597354092809,1697.0185365172,1504.47947134944,1889.55760168496
2021-04-04,"Sachsen","ICU",1.38597354092809,318.733986310445,253.510706742333,383.957265878557
2021-04-04,"Sachsen","ICUkumulativ",1.38597354092809,5613.68887122818,4489.47461467652,6737.90312777984
2021-04-04,"Sachsen","KHkumulativ",1.38597354092809,21080.7207326832,18773.6693977774,23387.7720675891
2021-04-04,"Sachsen","RECOVERED",1.38597354092809,200740.466763036,137259.757409384,264221.176116689
2021-04-04,"Sachsen","VENTILATED",1.38597354092809,155.820786359302,123.180146781418,188.461425937186
2021-04-05,"Sachsen","INCIDENCE",1.38765925704155,284.455240909442,239.070334884301,338.410337246006
2021-04-05,"Sachsen","CASES",1.38765925704155,230562.013323078,218335.488169914,242788.538476242
2021-04-05,"Sachsen","DAILY_CASES",1.38765925704155,1879.25759893292,1547.97156530368,2280.32468590859
2021-04-05,"Sachsen","DAILY_DEAD",1.38765925704155,52.3457571241306,47.3727690893284,58.0109281889763
2021-04-05,"Sachsen","DAILY_RECOVERED",1.38765925704155,1046.88346316403,936.143511548522,1173.86307699379
2021-04-05,"Sachsen","DEAD",1.38765925704155,8982.0105331765,8807.19975825464,9156.82130809836
2021-04-05,"Sachsen","HOSPITAL",1.38765925704155,1760.05962350294,1560.64358764197,1959.47565936391
2021-04-05,"Sachsen","ICU",1.38765925704155,329.166528563099,261.856740544456,396.476316581742
2021-04-05,"Sachsen","ICUkumulativ",1.38765925704155,5658.74676495361,4525.52092965686,6791.97260025035
2021-04-05,"Sachsen","KHkumulativ",1.38765925704155,21241.3780946247,18916.8011106137,23565.9550786357
2021-04-05,"Sachsen","RECOVERED",1.38765925704155,201787.3502262,137975.587253712,265599.113198689
2021-04-05,"Sachsen","VENTILATED",1.38765925704155,161.344189991972,127.598869687554,195.08951029639
2021-04-06,"Sachsen","INCIDENCE",1.38924294831707,296.989484284968,247.843194713527,355.813477217323
2021-04-06,"Sachsen","CASES",1.38924294831707,232524.857443922,220197.670723999,244852.044163846
2021-04-06,"Sachsen","DAILY_CASES",1.38924294831707,1962.84412084418,1605.49305836239,2398.37796178862
2021-04-06,"Sachsen","DAILY_DEAD",1.38924294831707,54.2987651716758,48.8070179702499,60.5923526328006
2021-04-06,"Sachsen","DAILY_RECOVERED",1.38924294831707,1088.66852531335,966.813289562764,1229.24477216954
2021-04-06,"Sachsen","DEAD",1.38924294831707,9036.30929834818,8860.47401637407,9212.14458032228
2021-04-06,"Sachsen","HOSPITAL",1.38924294831707,1826.59151749223,1619.91770885155,2045.21491355884
2021-04-06,"Sachsen","ICU",1.38924294831707,340.23749137091,270.713510790705,409.761471951116
2021-04-06,"Sachsen","ICUkumulativ",1.38924294831707,5705.7779892004,4563.1459090543,6848.41006934651
2021-04-06,"Sachsen","KHkumulativ",1.38924294831707,21409.0715172781,19066.2013405546,23751.9416940015
2021-04-06,"Sachsen","RECOVERED",1.38924294831707,202876.018751514,138719.988563332,267032.048939695
2021-04-06,"Sachsen","VENTILATED",1.38924294831707,167.187807027909,132.273763316304,202.101850739514
2021-04-07,"Sachsen","INCIDENCE",1.39072986249868,310.121068641653,256.979439616946,374.157170526419
2021-04-07,"Sachsen","CASES",1.39072986249868,234575.18634523,222142.851530567,247007.521159892
2021-04-07,"Sachsen","DAILY_CASES",1.39072986249868,2050.32890130719,1665.33585044896,2522.68516136176
2021-04-07,"Sachsen","DAILY_DEAD",1.39072986249868,56.3617551744137,50.3144160427091,63.3337987214491
2021-04-07,"Sachsen","DAILY_RECOVERED",1.39072986249868,1132.64919358934,998.907101838384,1287.8826252427
2021-04-07,"Sachsen","DEAD",1.39072986249868,9092.67105352259,8915.77234007872,9269.56976696646
2021-04-07,"Sachsen","HOSPITAL",1.39072986249868,1896.7520663515,1682.42464541771,2138.57118009935
2021-04-07,"Sachsen","ICU",1.39072986249868,351.970809593851,280.100165369057,423.841453818644
2021-04-07,"Sachsen","ICUkumulativ",1.39072986249868,5754.87744175469,4602.42547109773,6907.32941241165
2021-04-07,"Sachsen","KHkumulativ",1.39072986249868,21584.1393659487,19222.1715416085,23946.1071902889
2021-04-07,"Sachsen","RECOVERED",1.39072986249868,204008.667945103,139494.462632752,268522.873257454
2021-04-07,"Sachsen","VENTILATED",1.39072986249868,173.363853241598,137.214600287255,209.513106195941
2021-04-08,"Sachsen","INCIDENCE",1.3921250967014,323.873709517752,266.490674346186,393.485251890198
2021-04-08,"Sachsen","CASES",1.3921250967014,236717.047331718,224174.87033428,249259.224329155
2021-04-08,"Sachsen","DAILY_CASES",1.3921250967014,2141.86098648794,1727.57179380086,2653.52537866987
2021-04-08,"Sachsen","DAILY_DEAD",1.3921250967014,58.5387271351465,51.8969891247325,66.2424148409955
2021-04-08,"Sachsen","DAILY_RECOVERED",1.3921250967014,1178.91280112139,1032.47107529588,1349.93013764973
2021-04-08,"Sachsen","DEAD",1.3921250967014,9151.20978065774,8973.20656071929,9329.21300059619
2021-04-08,"Sachsen","HOSPITAL",1.3921250967014,1970.68489695843,1741.34249355311,2237.50583681626
2021-04-08,"Sachsen","ICU",1.3921250967014,364.391483028603,290.036704116859,438.746261940347
2021-04-08,"Sachsen","ICUkumulativ",1.3921250967014,5806.14384044857,4643.43859005283,6968.84909084431
2021-04-08,"Sachsen","KHkumulativ",1.3921250967014,21766.9336266079,19385.0253026103,24148.8419506055
2021-04-08,"Sachsen","RECOVERED",1.3921250967014,205187.580746225,140300.570472446,270074.591020003
2021-04-08,"Sachsen","VENTILATED",1.3921250967014,179.885085988256,142.431586484582,217.338585491931
2021-04-09,"Sachsen","INCIDENCE",1.39343358493787,338.271746544162,276.388747555285,413.842914558683
2021-04-09,"Sachsen","CASES",1.39343358493787,238954.640068706,226297.711426815,251611.568710597
2021-04-09,"Sachsen","DAILY_CASES",1.39343358493787,2237.59273698824,1792.27402393377,2791.18486336753
2021-04-09,"Sachsen","DAILY_DEAD",1.39343358493787,60.8338901672669,53.5568669856602,69.3257380139621
2021-04-09,"Sachsen","DAILY_RECOVERED",1.39343358493787,1227.55021945623,1067.55283123659,1415.54791138077
2021-04-09,"Sachsen","DEAD",1.39343358493787,9212.043670825,9032.8926393425,9391.19470230751
2021-04-09,"Sachsen","HOSPITAL",1.39343358493787,2048.5394356262,1797.59333056149,2342.28140985217
2021-04-09,"Sachsen","ICU",1.39343358493787,377.525590150451,300.543989814337,454.507190486564
2021-04-09,"Sachsen","ICUkumulativ",1.39343358493787,5859.67982944097,4686.26738124675,7033.09227763518
2021-04-09,"Sachsen","KHkumulativ",1.39343358493787,21957.8202848448,19555.0886848349,24360.5518848547
2021-04-09,"Sachsen","RECOVERED",1.39343358493787,206415.130965681,141139.93522833,271690.326703031
2021-04-09,"Sachsen","VENTILATED",1.39343358493787,186.764809450385,147.935365254285,225.594253646485
2021-04-10,"Sachsen","INCIDENCE",1.3946600886134,353.340126210533,286.685744353978,435.276669851793
2021-04-10,"Sachsen","CASES",1.3946600886134,241292.319709044,228515.506613427,254069.132804662
2021-04-10,"Sachsen","DAILY_CASES",1.3946600886134,2337.67964033835,1859.51688674558,2935.95654493276
2021-04-10,"Sachsen","DAILY_DEAD",1.3946600886134,63.2516592851662,55.2962797084201,72.5916932658274
2021-04-10,"Sachsen","DAILY_RECOVERED",1.3946600886134,1278.65584879232,1104.2014680962,1484.90368021579
2021-04-10,"Sachsen","DEAD",1.3946600886134,9275.29533011017,9094.95086870713,9455.63979151321
2021-04-10,"Sachsen","HOSPITAL",1.3946600886134,2130.47091919273,1856.46452096949,2453.1722122594
2021-04-10,"Sachsen","ICU",1.3946600886134,391.400299931893,311.643757639491,471.156842224295
2021-04-10,"Sachsen","ICUkumulativ",1.3946600886134,5915.59208340906,4730.99718442123,7100.1869823969
2021-04-10,"Sachsen","KHkumulativ",1.3946600886134,22157.1796973699,19732.7005529742,24581.6588417656
2021-04-10,"Sachsen","RECOVERED",1.3946600886134,207693.786814473,142014.244594555,273373.329034391
2021-04-10,"Sachsen","VENTILATED",1.3946600886134,194.016878865688,153.737020786527,234.296736944848
2021-04-11,"Sachsen","INCIDENCE",1.39580918965822,369.104379779408,297.393977208987,457.834293369938
2021-04-11,"Sachsen","CASES",1.39580918965822,243734.59979579,230832.537966773,256636.661624807
2021-04-11,"Sachsen","DAILY_CASES",1.39580918965822,2442.28008674618,1929.37585378159,3088.13945199212
2021-04-11,"Sachsen","DAILY_DEAD",1.39580918965822,65.7966521800008,57.1175542808251,76.0485923842916
2021-04-11,"Sachsen","DAILY_RECOVERED",1.39580918965822,1332.32760094086,1142.46754272701,1558.17231923941
2021-04-11,"Sachsen","DEAD",1.39580918965822,9341.09198229017,9159.50607213669,9522.67789244365
2021-04-11,"Sachsen","HOSPITAL",1.39580918965822,2216.64039483571,1918.03958962822,2570.46440383657
2021-04-11,"Sachsen","ICU",1.39580918965822,406.043881475601,323.358622874458,488.729140076745
2021-04-11,"Sachsen","ICUkumulativ",1.39580918965822,5973.99140895659,4777.71664485925,7170.26617305393
2021-04-11,"Sachsen","KHkumulativ",1.39580918965822,22365.4069535929,19918.2128972716,24812.6010099141
2021-04-11,"Sachsen","RECOVERED",1.39580918965822,209026.114415414,142925.253214648,275126.97561618
2021-04-11,"Sachsen","VENTILATED",1.39580918965822,201.655703599782,159.848080573803,243.463326625762
2021-04-12,"Sachsen","INCIDENCE",1.39688528598224,385.590595872395,308.525975067951,481.564756353359
2021-04-12,"Sachsen","CASES",1.39688528598224,246286.154900679,233253.24033007,259319.069471288
2021-04-12,"Sachsen","DAILY_CASES",1.39688528598224,2551.55510488877,2001.92742483359,3248.0380161808
2021-04-12,"Sachsen","DAILY_DEAD",1.39688528598224,68.4736859229888,59.0231113756727,79.7051319201237
2021-04-12,"Sachsen","DAILY_RECOVERED",1.39688528598224,1388.66687364655,1182.40304959359,1635.53582889721
2021-04-12,"Sachsen","DEAD",1.39688528598224,9409.56566821316,9226.6877991376,9592.44353728872
2021-04-12,"Sachsen","HOSPITAL",1.39688528598224,2307.2147064257,1982.40443392408,2694.45601341366
2021-04-12,"Sachsen","ICU",1.39688528598224,421.485711162826,335.712086624237,507.259335701414
2021-04-12,"Sachsen","ICUkumulativ",1.39688528598224,6034.99284246332,4826.51779166463,7243.467893262
2021-04-12,"Sachsen","KHkumulativ",1.39688528598224,22582.9122245129,20111.9911443529,25053.833304673
2021-04-12,"Sachsen","RECOVERED",1.39688528598224,210414.78128906,143874.785065099,276954.777513022
2021-04-12,"Sachsen","VENTILATED",1.39688528598224,209.696248906995,166.280516819573,253.111980994418
2021-04-13,"Sachsen","INCIDENCE",1.39789258895662,402.825387227202,320.094470575765,506.518140569974
2021-04-13,"Sachsen","CASES",1.39789258895662,248951.822955054,235782.203528484,262121.442381623
2021-04-13,"Sachsen","DAILY_CASES",1.39789258895662,2665.66805437466,2077.24901701888,3415.96124951015
2021-04-13,"Sachsen","DAILY_DEAD",1.39789258895662,71.2877735191269,61.015462275871,83.5703902411915
2021-04-13,"Sachsen","DAILY_RECOVERED",1.39789258895662,1447.77851477097,1224.0613972632,1717.18328938575
2021-04-13,"Sachsen","DEAD",1.39789258895662,9480.85344173229,9296.63051763608,9665.07636582849
2021-04-13,"Sachsen","HOSPITAL",1.39789258895662,2402.36646500343,2049.64730546507,2825.45691689335
2021-04-13,"Sachsen","ICU",1.39789258895662,437.756276982604,348.72853928006,526.784014685148
2021-04-13,"Sachsen","ICUkumulativ",1.39789258895662,6098.71574351671,4877.49611250734,7319.93537452607
2021-04-13,"Sachsen","KHkumulativ",1.39789258895662,22810.121095857,20314.4144540231,25305.8277376909
2021-04-13,"Sachsen","RECOVERED",1.39789258895662,211862.559803831,144864.735814457,278860.383793206
2021-04-13,"Sachsen","VENTILATED",1.39789258895662,218.154036202985,173.046746656364,263.261325749605
2021-04-14,"Sachsen","INCIDENCE",1.39883512264748,420.835851099161,332.112385247505,532.745535020471
2021-04-14,"Sachsen","CASES",1.39883512264748,251736.607226467,238424.174244369,265049.040208565
2021-04-14,"Sachsen","DAILY_CASES",1.39883512264748,2784.78427141343,2155.41883947628,3592.22178379452
2021-04-14,"Sachsen","DAILY_DEAD",1.39883512264748,74.2441202241116,63.0972058956486,87.653823422761
2021-04-14,"Sachsen","DAILY_RECOVERED",1.39883512264748,1509.77077468269,1267.49738155192,1803.31078075216
2021-04-14,"Sachsen","DEAD",1.39883512264748,9555.0975619564,9369.47380260147,9740.72132131133
2021-04-14,"Sachsen","HOSPITAL",1.39883512264748,2502.27400075756,2119.85878531053,2963.78876365715
2021-04-14,"Sachsen","ICU",1.39883512264748,454.887179671596,362.433261431254,547.341097911939
2021-04-14,"Sachsen","ICUkumulativ",1.39883512264748,6165.28388298146,4930.75062407914,7399.81714188377
2021-04-14,"Sachsen","KHkumulativ",1.39883512264748,23047.4748820976,20525.8759990295,25569.0737651657
2021-04-14,"Sachsen","RECOVERED",1.39883512264748,213372.330578514,145897.075149864,280847.586007164
2021-04-14,"Sachsen","VENTILATED",1.39883512264748,227.045141653724,180.159631016956,273.930652290492
2021-04-15,"Sachsen","INCIDENCE",1.39971672454917,439.649522757343,344.592812457731,560.298912664872
2021-04-15,"Sachsen","CASES",1.39971672454917,254645.677890563,241184.057508533,268107.298272593
2021-04-15,"Sachsen","DAILY_CASES",1.39971672454917,2909.07066409549,2236.51575276474,3777.13476038064
2021-04-15,"Sachsen","DAILY_DEAD",1.39971672454917,77.3481195245331,65.2710258489205,91.9652597283875
2021-04-15,"Sachsen","DAILY_RECOVERED",1.39971672454917,1574.75524511098,1312.76715468583,1894.12126364539
2021-04-15,"Sachsen","DEAD",1.39971672454917,9632.44568148093,9445.36252072561,9819.52884223625
2021-04-15,"Sachsen","HOSPITAL",1.39971672454917,2607.12129368029,2193.13175178583,3109.78484326033
2021-04-15,"Sachsen","ICU",1.39971672454917,472.911130258926,376.852421901118,568.969838616735
2021-04-15,"Sachsen","ICUkumulativ",1.39971672454917,6234.8255246729,4986.38393743229,7483.2671119135
2021-04-15,"Sachsen","KHkumulativ",1.39971672454917,23295.4309176662,20746.783224507,25844.0786108253
2021-04-15,"Sachsen","RECOVERED",1.39971672454917,214947.085823625,146973.849061791,282920.32258546
2021-04-15,"Sachsen","VENTILATED",1.39971672454917,236.386192866408,187.632471987103,285.139913745713
2021-04-16,"Sachsen","INCIDENCE",1.40054104758624,459.294321503677,357.548998101112,589.230985299973
2021-04-16,"Sachsen","CASES",1.40054104758624,257684.373144203,244066.917756282,271301.828532124
2021-04-16,"Sachsen","DAILY_CASES",1.40054104758624,3038.69525364053,2320.61911207388,3971.01655822119
2021-04-16,"Sachsen","DAILY_DEAD",1.40054104758624,80.6053486756682,67.5396875130682,96.5148924116274
2021-04-16,"Sachsen","DAILY_RECOVERED",1.40054104758624,1642.8467825501,1359.92818980815,1989.82441524279
2021-04-16,"Sachsen","DEAD",1.40054104758624,9713.0510301566,9524.44701072418,9901.65504958902
2021-04-16,"Sachsen","HOSPITAL",1.40054104758624,2717.09787988773,2269.56133990575,3263.78988366545
2021-04-16,"Sachsen","ICU",1.40054104758624,491.861943574922,392.013072553915,591.71081459593
2021-04-16,"Sachsen","ICUkumulativ",1.40054104758624,6307.47349950989,5044.50231730189,7570.44468171789
2021-04-16,"Sachsen","KHkumulativ",1.40054104758624,23554.4628213504,20977.5580835333,26131.3675591676
2021-04-16,"Sachsen","RECOVERED",1.40054104758624,216589.932606175,148097.182076387,285082.683135964
2021-04-16,"Sachsen","VENTILATED",1.40054104758624,246.194363448993,195.479008453171,296.909718444815
2021-04-17,"Sachsen","INCIDENCE",1.40131156317565,479.798488624219,370.994318775601,619.595034655509
2021-04-17,"Sachsen","CASES",1.40131156317565,260858.199802092,247077.979393448,274638.420210736
2021-04-17,"Sachsen","DAILY_CASES",1.40131156317565,3173.82665788877,2407.80859329921,4174.1833483004
2021-04-17,"Sachsen","DAILY_DEAD",1.40131156317565,84.0215636817302,69.9060350371528,101.313270546007
2021-04-17,"Sachsen","DAILY_RECOVERED",1.40131156317565,1714.16341423805,1409.03924017461,2090.63641447786
2021-04-17,"Sachsen","DEAD",1.40131156317565,9797.07259383833,9606.88325871299,9987.26192896366
2021-04-17,"Sachsen","HOSPITAL",1.40131156317565,2832.39873040701,2349.24489141036,3426.15977160269
2021-04-17,"Sachsen","ICU",1.40131156317565,511.774527247153,407.943139491699,615.605915002606
2021-04-17,"Sachsen","ICUkumulativ",1.40131156317565,6383.3652709266,5105.21573443525,7661.51480741794
2021-04-17,"Sachsen","KHkumulativ",1.40131156317565,23825.0607295255,21218.6372449173,26431.4842141336
2021-04-17,"Sachsen","RECOVERED",1.40131156317565,218304.096020413,149269.279423553,287338.912617274
2021-04-17,"Sachsen","VENTILATED",1.40131156317565,256.487365186428,203.713409843119,309.261320529737
2021-04-18,"Sachsen","INCIDENCE",1.40203156516189,501.190516666165,384.942257335777,651.444717730728
2021-04-18,"Sachsen","CASES",1.40203156516189,264172.833315411,250222.626814067,278123.039816756
2021-04-18,"Sachsen","DAILY_CASES",1.40203156516189,3314.63351331907,2498.16400106429,4386.94946249924
2021-04-18,"Sachsen","DAILY_DEAD",1.40203156516189,87.602693599827,72.3729882428761,106.371287568993
2021-04-18,"Sachsen","DAILY_RECOVERED",1.40203156516189,1788.82622457674,1460.16029234268,2196.77967027822
2021-04-18,"Sachsen","DEAD",1.40203156516189,9884.67528743816,9692.83306799575,10080.442586464
2021-04-18,"Sachsen","HOSPITAL",1.40203156516189,2953.22409905355,2432.281894395,3597.26118499777
2021-04-18,"Sachsen","ICU",1.40203156516189,532.684865671744,424.671410231372,640.698321112116
2021-04-18,"Sachsen","ICUkumulativ",1.40203156516189,6462.64299022597,5168.63790987475,7756.64807057719
2021-04-18,"Sachsen","KHkumulativ",1.40203156516189,24107.7314935205,21470.4722690359,26744.9907180051
2021-04-18,"Sachsen","RECOVERED",1.40203156516189,220092.92224499,150492.429127339,289693.415362641
2021-04-18,"Sachsen","VENTILATED",1.40203156516189,267.283437563126,212.350267744477,322.216607381774
2021-04-19,"Sachsen","INCIDENCE",1.40270417445787,523.499069422007,399.40637566113,684.833844370201
2021-04-19,"Sachsen","CASES",1.40270417445787,267634.117147295,253506.40380788,282099.603092479
2021-04-19,"Sachsen","DAILY_CASES",1.40270417445787,3461.28383188375,2591.76505774693,4609.62556538871
2021-04-19,"Sachsen","DAILY_DEAD",1.40270417445787,91.354834042344,74.9435393678177,111.700167207777
2021-04-19,"Sachsen","DAILY_RECOVERED",1.40270417445787,1866.9592197832,1513.35251266608,2308.48248617607
2021-04-19,"Sachsen","DEAD",1.40270417445787,9976.0301214805,9782.46422247673,10192.1427536718
2021-04-19,"Sachsen","HOSPITAL",1.40270417445787,3079.77933584833,2518.77391149225,3777.47112678356
2021-04-19,"Sachsen","ICU",1.40270417445787,554.629998412843,442.227516424251,667.897880512499
2021-04-19,"Sachsen","ICUkumulativ",1.40270417445787,6545.45354045726,5234.88635005978,7856.02073085474
2021-04-19,"Sachsen","KHkumulativ",1.40270417445787,24402.9988360678,21733.5297472162,27072.4679249194
2021-04-19,"Sachsen","RECOVERED",1.40270417445787,221959.881464773,151769.004003806,292150.758925741
2021-04-19,"Sachsen","VENTILATED",1.40270417445787,278.601334343043,221.404585168411,338.199022414213
2021-04-20,"Sachsen","INCIDENCE",1.40333234424392,546.752891995508,414.400284482316,719.816125078388
2021-04-20,"Sachsen","CASES",1.40333234424392,271248.061436309,256935.01229236,286942.119710432
2021-04-20,"Sachsen","DAILY_CASES",1.40333234424392,3613.9442890138,2688.69117258428,4842.5166179532
2021-04-20,"Sachsen","DAILY_DEAD",1.40333234424392,95.2842397491513,77.620749600037,117.311446434191
2021-04-20,"Sachsen","DAILY_RECOVERED",1.40333234424392,1948.68916845071,1568.67818637929,2425.97865428205
2021-04-20,"Sachsen","DEAD",1.40333234424392,10071.3143612297,9870.70743350489,10309.454200106
2021-04-20,"Sachsen","HOSPITAL",1.40333234424392,3212.27466225856,2608.82449553947,3967.17634881752
2021-04-20,"Sachsen","ICU",1.40333234424392,577.647992448525,460.641911652797,700.489080776621
2021-04-20,"Sachsen","ICUkumulativ",1.40333234424392,6631.94856729826,5304.08237153258,7959.81476306393
2021-04-20,"Sachsen","KHkumulativ",1.40333234424392,24711.4034614153,22008.2913998363,27414.5155229943
2021-04-20,"Sachsen","RECOVERED",1.40333234424392,223908.570633224,153101.463549856,294715.677716592
2021-04-20,"Sachsen","VENTILATED",1.40333234424392,290.460306900987,230.891763214766,355.045904011524
2021-04-21,"Sachsen","INCIDENCE",1.40391886559504,570.980710323743,429.937610107605,756.444887105887
2021-04-21,"Sachsen","CASES",1.40391886559504,275020.840875622,260514.310300639,292028.039333588
2021-04-21,"Sachsen","DAILY_CASES",1.40391886559504,3772.77943931334,2789.02118996042,5085.91962315585
2021-04-21,"Sachsen","DAILY_DEAD",1.40391886559504,99.3973160962087,80.4077453541904,123.216955081352
2021-04-21,"Sachsen","DAILY_RECOVERED",1.40391886559504,2034.14541560371,1626.20064855597,2549.50697129729
2021-04-21,"Sachsen","DEAD",1.40391886559504,10170.7116773259,9951.11517885908,10432.6711551874
2021-04-21,"Sachsen","HOSPITAL",1.40391886559504,3350.92490438716,2702.53909163988,4166.77265407755
2021-04-21,"Sachsen","ICU",1.40391886559504,601.777907647792,479.94584381221,734.835439795869
2021-04-21,"Sachsen","ICUkumulativ",1.40391886559504,6722.28449531981,5376.35111394982,8068.21787668979
2021-04-21,"Sachsen","KHkumulativ",1.40391886559504,25033.503113319,22295.2541279916,27771.7520986464
2021-04-21,"Sachsen","RECOVERED",1.40391886559504,225942.716048828,154492.35570493,297393.076392725
2021-04-21,"Sachsen","VENTILATED",1.40391886559504,302.880083981604,240.82758487926,372.785218425808
2021-04-22,"Sachsen","INCIDENCE",1.40446637342305,596.211119535585,446.031957891981,794.772756910577
2021-04-22,"Sachsen","CASES",1.40446637342305,278958.791732219,264250.309153592,297368.160478046
2021-04-22,"Sachsen","DAILY_CASES",1.40446637342305,3937.95085659658,2892.83311597252,5340.12114445789
2021-04-22,"Sachsen","DAILY_DEAD",1.40446637342305,103.700609404694,83.307714240651,129.428791740102
2021-04-22,"Sachsen","DAILY_RECOVERED",1.40446637342305,2123.45966774499,1685.98420621199,2679.31066897561
2021-04-22,"Sachsen","DEAD",1.40446637342305,10274.4122867306,10034.4228930997,10562.0999469275
2021-04-22,"Sachsen","HOSPITAL",1.40446637342305,3495.94918008987,2800.02492450134,4376.66406481844
2021-04-22,"Sachsen","ICU",1.40446637342305,627.05975483104,500.171321558808,771.01012150853
2021-04-22,"Sachsen","ICUkumulativ",1.40446637342305,6816.62252790746,5451.82154001995,8181.42351579498
2021-04-22,"Sachsen","KHkumulativ",1.40446637342305,25369.8725747644,22594.9300132463,28144.8151362824
2021-04-22,"Sachsen","RECOVERED",1.40446637342305,228066.175716573,155944.318465717,300188.032967428
2021-04-22,"Sachsen","VENTILATED",1.40446637342305,315.880847546245,251.228195730973,391.45401032296
2021-04-23,"Sachsen","INCIDENCE",1.40497735263556,622.472460541488,462.696872293174,834.851307209984
2021-04-23,"Sachsen","CASES",1.40497735263556,283068.407927435,267353.826190568,302973.55506799
2021-04-23,"Sachsen","DAILY_CASES",1.40497735263556,4109.61619521643,3000.20382245845,5605.39458994434
2021-04-23,"Sachsen","DAILY_DEAD",1.40497735263556,108.200795911489,86.3239006785461,135.959295538432
2021-04-23,"Sachsen","DAILY_RECOVERED",1.40497735263556,2216.76574634449,1748.09405081035,2815.63675123436
2021-04-23,"Sachsen","DEAD",1.40497735263556,10382.613082642,10120.7467937783,10698.0592424659
2021-04-23,"Sachsen","HOSPITAL",1.40497735263556,3647.57053586639,2901.39086991279,4597.26184395864
2021-04-23,"Sachsen","ICU",1.40497735263556,653.534445735913,521.351074282707,809.087992794257
2021-04-23,"Sachsen","ICUkumulativ",1.40497735263556,6915.12862901297,5530.62642090435,8299.63083712159
2021-04-23,"Sachsen","KHkumulativ",1.40497735263556,25721.1036028988,22907.8462596642,28534.3609461333
2021-04-23,"Sachsen","RECOVERED",1.40497735263556,230282.941462917,157460.081332313,303105.801593522
2021-04-23,"Sachsen","VENTILATED",1.40497735263556,329.483204352712,262.110081176146,411.090125970421
2021-04-24,"Sachsen","INCIDENCE",1.40545414442745,649.792684273945,479.94579336226,876.730667005063
2021-04-24,"Sachsen","CASES",1.40545414442745,287356.336097392,270465.034918244,308855.552324738
2021-04-24,"Sachsen","DAILY_CASES",1.40545414442745,4287.92816995742,3111.20872767625,5881.99725674704
2021-04-24,"Sachsen","DAILY_DEAD",1.40545414442745,112.90466925844,89.4596011048252,142.821013400919
2021-04-24,"Sachsen","DAILY_RECOVERED",1.40545414442745,2314.19930710533,1812.59616040738,2958.73522993215
2021-04-24,"Sachsen","DEAD",1.40545414442745,10495.5177519005,10210.2063948831,10840.8802558668
2021-04-24,"Sachsen","HOSPITAL",1.40545414442745,3806.01552925799,3006.7473091976,4828.98335665403
2021-04-24,"Sachsen","ICU",1.40545414442745,681.243734182589,543.518505040048,849.145465029664
2021-04-24,"Sachsen","ICUkumulativ",1.40545414442745,7017.97348480866,5612.90230554091,8423.04466407642
2021-04-24,"Sachsen","KHkumulativ",1.40545414442745,26087.8047923079,23234.5450719998,28941.064512616
2021-04-24,"Sachsen","RECOVERED",1.40545414442745,232597.140770022,159042.466562414,306151.814977631
2021-04-24,"Sachsen","VENTILATED",1.40545414442745,343.708152899178,273.490040013319,431.732124574817
2021-04-25,"Sachsen","INCIDENCE",1.40589895263298,678.199203033083,497.792009521507,920.459093175968
2021-04-25,"Sachsen","CASES",1.40589895263298,291829.369549602,273690.956371166,315025.719457578
2021-04-25,"Sachsen","DAILY_CASES",1.40589895263298,4473.0334522099,3225.92145292222,6170.16713284026
2021-04-25,"Sachsen","DAILY_DEAD",1.40589895263298,117.819126358871,92.7181587331761,150.02666237638
2021-04-25,"Sachsen","DAILY_RECOVERED",1.40589895263298,2415.89752236387,1879.55719071644,3108.85825133434
2021-04-25,"Sachsen","DEAD",1.40589895263298,10613.3368782594,10302.9245536163,10990.9069182432
2021-04-25,"Sachsen","HOSPITAL",1.40589895263298,3971.51375239319,3116.20596546409,5072.25075882595
2021-04-25,"Sachsen","ICU",1.40589895263298,710.230147707763,566.707635860187,891.260307971733
2021-04-25,"Sachsen","ICUkumulativ",1.40589895263298,7125.3324432219,5698.7894722715,8551.8754141723
2021-04-25,"Sachsen","KHkumulativ",1.40589895263298,26470.6013594213,23575.5834636221,29365.6192552206
2021-04-25,"Sachsen","RECOVERED",1.40589895263298,235013.038292386,160694.390208355,309331.686376417
2021-04-25,"Sachsen","VENTILATED",1.40589895263298,358.577045351712,284.420368775144,453.419174962487
2021-04-26,"Sachsen","INCIDENCE",1.40631385007789,707.718728439239,516.248606489209,966.08250253496
2021-04-26,"Sachsen","CASES",1.40631385007789,296494.441030248,277035.3698256,321495.838913878
2021-04-26,"Sachsen","DAILY_CASES",1.40631385007789,4665.0714806458,3344.41345443373,6470.11945630051
2021-04-26,"Sachsen","DAILY_DEAD",1.40631385007789,122.95115149471,96.1029578153921,157.589086620168
2021-04-26,"Sachsen","DAILY_RECOVERED",1.40631385007789,2521.99872391223,1949.04435428604,3266.25910526377
2021-04-26,"Sachsen","DEAD",1.40631385007789,10736.2880297541,10399.0275114317,11148.4960048634
2021-04-26,"Sachsen","HOSPITAL",1.40631385007789,4144.29729226021,3229.87972045953,5327.48949937303
2021-04-26,"Sachsen","ICU",1.40631385007789,740.536908915856,588.500726907303,935.511433698027
2021-04-26,"Sachsen","ICUkumulativ",1.40631385007789,7237.38542923698,5788.43186108356,8686.3389973904
2021-04-26,"Sachsen","KHkumulativ",1.40631385007789,26870.1348405146,23931.5329874614,29808.7366935679
2021-04-26,"Sachsen","RECOVERED",1.40631385007789,237535.037016299,162418.862909908,312651.21112269
2021-04-26,"Sachsen","VENTILATED",1.40631385007789,374.11154406513,294.725523939499,476.190936424889
2021-04-27,"Sachsen","INCIDENCE",1.40670078488064,738.377095556315,535.328412221255,1013.64396357713
2021-04-27,"Sachsen","CASES",1.40670078488064,301358.614215525,280502.123455659,328277.881949411
2021-04-27,"Sachsen","DAILY_CASES",1.40670078488064,4864.17318527686,3466.75363005948,6782.04303553252
2021-04-27,"Sachsen","DAILY_DEAD",1.40670078488064,128.307798501313,99.6174173601557,165.521208621572
2021-04-27,"Sachsen","DAILY_RECOVERED",1.40670078488064,2632.64200353771,2021.12528708164,3431.19110914605
2021-04-27,"Sachsen","DEAD",1.40670078488064,10864.5958282554,10498.6449287918,11314.0172134849
2021-04-27,"Sachsen","HOSPITAL",1.40670078488064,4324.60012325584,3347.88241082385,5595.12662293949
2021-04-27,"Sachsen","ICU",1.40670078488064,772.207845780108,609.491862719795,981.978648316791
2021-04-27,"Sachsen","ICUkumulativ",1.40670078488064,7354.31683376899,5881.97698470916,8826.65668282881
2021-04-27,"Sachsen","KHkumulativ",1.40670078488064,27287.0626954806,24302.9793830034,30271.1460079578
2021-04-27,"Sachsen","RECOVERED",1.40670078488064,240167.679019836,164218.990413944,316116.367625728
2021-04-27,"Sachsen","VENTILATED",1.40670078488064,390.333572300035,305.430517196702,500.08742254754
2021-04-28,"Sachsen","INCIDENCE",1.40706158666092,770.199072825371,555.043937749664,1063.18314760384
2021-04-28,"Sachsen","CASES",1.40706158666092,306429.073840025,284095.131355887,335383.97828749
2021-04-28,"Sachsen","DAILY_CASES",1.40706158666092,5070.45962449978,3593.00790022785,7106.09633807908
2021-04-28,"Sachsen","DAILY_DEAD",1.40706158666092,133.896170894894,103.264984264788,173.83597427383
2021-04-28,"Sachsen","DAILY_RECOVERED",1.40706158666092,2747.96676862685,2095.86790168367,3603.90635945986
2021-04-28,"Sachsen","DEAD",1.40706158666092,10998.4919991503,10601.9099130566,11487.8531877588
2021-04-28,"Sachsen","HOSPITAL",1.40706158666092,4512.65742757219,3470.32860253671,5875.58886047074
2021-04-28,"Sachsen","ICU",1.40706158666092,805.287290116169,631.305635292534,1030.74236917471
2021-04-28,"Sachsen","ICUkumulativ",1.40706158666092,7476.31537384178,5979.5758167674,8973.05493091617
2021-04-28,"Sachsen","KHkumulativ",1.40706158666092,27722.0578092834,24690.5221321287,30753.5934864382
2021-04-28,"Sachsen","RECOVERED",1.40706158666092,242915.645788463,166097.97379024,319733.317786686
2021-04-28,"Sachsen","VENTILATED",1.40706158666092,407.265258735175,316.546170115039,525.148846854692
2021-04-29,"Sachsen","INCIDENCE",1.40739797262125,803.208157542301,575.407313814764,1114.73573941003
2021-04-29,"Sachsen","CASES",1.40739797262125,311713.114375654,287818.370118867,342826.381647672
2021-04-29,"Sachsen","DAILY_CASES",1.40739797262125,5284.04053562961,3723.23876298039,7442.4033601816
2021-04-29,"Sachsen","DAILY_DEAD",1.40739797262125,139.72339980188,107.049125815225,182.546291400711
2021-04-29,"Sachsen","DAILY_RECOVERED",1.40739797262125,2868.1122501998,2173.3402263725,3784.65434357291
2021-04-29,"Sachsen","DEAD",1.40739797262125,11138.2153989522,10708.9590388718,11670.3994791595
2021-04-29,"Sachsen","HOSPITAL",1.40739797262125,4708.70483904147,3597.33334235489,6169.30049539408
2021-04-29,"Sachsen","ICU",1.40739797262125,839.819963447711,653.964014074985,1081.88330534078
2021-04-29,"Sachsen","ICUkumulativ",1.40739797262125,7603.57392174198,6081.38265508756,9125.7651883964
2021-04-29,"Sachsen","KHkumulativ",1.40739797262125,28175.8078827941,25094.7739164002,31256.8418491881
2021-04-29,"Sachsen","RECOVERED",1.40739797262125,245783.758038663,168059.109310873,323508.406766452
2021-04-29,"Sachsen","VENTILATED",1.40739797262125,424.928875374384,328.083387132308,551.41544913513
2021-04-30,"Sachsen","INCIDENCE",1.4077115534743,837.42635672467,596.430223203304,1168.33280833534
2021-04-30,"Sachsen","CASES",1.4077115534743,317218.127176062,291675.874941758,350617.430942236
2021-04-30,"Sachsen","DAILY_CASES",1.4077115534743,5505.01280040795,3857.50482289022,7791.04929456481
2021-04-30,"Sachsen","DAILY_DEAD",1.4077115534743,145.796619550725,110.973321512412,191.664961377439
2021-04-30,"Sachsen","DAILY_RECOVERED",1.4077115534743,2993.21696087532,2253.61022937181,3973.68040560052
2021-04-30,"Sachsen","DEAD",1.4077115534743,11284.0120185029,10819.9323603842,11862.0644405369
2021-04-30,"Sachsen","HOSPITAL",1.4077115534743,4912.97760617281,3729.01188505034,6476.68099415577
2021-04-30,"Sachsen","ICU",1.4077115534743,875.850849488617,677.48913683232,1135.48209923735
2021-04-30,"Sachsen","ICUkumulativ",1.4077115534743,7736.2893007757,6187.55495831454,9285.02364323686
2021-04-30,"Sachsen","KHkumulativ",1.4077115534743,28649.0147045455,25516.3599682599,31781.6694408312
2021-04-30,"Sachsen","RECOVERED",1.4077115534743,248776.974999538,170105.787959007,327448.162040069
2021-04-30,"Sachsen","VENTILATED",1.4077115534743,443.346768451969,340.053132595655,578.927301370568
